EEB 603 Bioinformatics Tutorial
…
#HOW TO CREATE A SUBSET FROM A DATA E.G GAPMINDER

#Let's create a new data set that includes all the information of America in gapmider

americas<-gapminder[gapminder$continent=="Americas",]

#Important notice are the use of double equal to sign. Also, the comma at the end of 'Americas' was added to tell the computer that we need all the columns in the row 'Americas'.

americas

## # A tibble: 300 × 6
##    country   continent  year lifeExp      pop gdpPercap
##    <fct>     <fct>     <int>   <dbl>    <int>     <dbl>
##  1 Argentina Americas   1952    62.5 17876956     5911.
##  2 Argentina Americas   1957    64.4 19610538     6857.
##  3 Argentina Americas   1962    65.1 21283783     7133.
##  4 Argentina Americas   1967    65.6 22934225     8053.
##  5 Argentina Americas   1972    67.1 24779799     9443.
##  6 Argentina Americas   1977    68.5 26983828    10079.
##  7 Argentina Americas   1982    69.9 29341374     8998.
##  8 Argentina Americas   1987    70.8 31620918     9140.
##  9 Argentina Americas   1992    71.9 33958947     9308.
## 10 Argentina Americas   1997    73.3 36203463    10967.
## # ℹ 290 more rows
…
